Ecoinvent inputs dataset — ecoinvent_inputs • tiltIndicatorAfter
…
ecoinvent_inputs

    Format

    An object of class tbl_df (inherits from tbl, data.frame) with 52 rows and 3 columns.

    Author

    Kalash Singhal.

    Examples

ecoinvent_inputs
#> # A tibble: 52 × 3
#>    input_activity_uuid_product_uuid             exchange_name exchange_unit_name
#>    <chr>                                        <chr>         <chr>             
#>  1 7ac71fd7-a65b-5f2c-9289-7335f9945c11_fef44c… aluminium, w… kg                
#>  2 3b190359-a32e-5294-af63-983f38ce6525_759b89… electricity,… kWh               
#>  3 62b803ad-e3ff-516b-947d-f08eea52c702_fbb039… copper, cath… kg                
#>  4 372a1991-e0af-5fbf-8611-295a535373ad_9ba482… reinforcing … kg                
#>  5 531db396-1434-54e5-b6c4-c2b4323471cb_751b5e… stone wool, … kg                
#>  6 c93a2afc-7e58-50b6-af0e-586f71a3de0e_bfd577… waste minera… kg                
#>  7 3a29c9e0-4183-588d-95a9-502b55d2c513_bfd577… waste minera… kg                
#>  8 2330b528-6e31-5a99-9801-73834e2a835f_6f2eb4… waste wood, … kg                
#>  9 79d6450d-f9ad-5619-89c3-05c8d7622af3_b0f4c2… diesel, burn… MJ                
#> 10 044043d2-bdfc-55f1-9d2d-e8431d5266c7_8cb650… steel, low-a… kg                
#> # ℹ 42 more rows
…
