Composable friends — profile_emissions_impl • tiltIndicatorAfter
…
result <- profile_emissions_impl(
  companies,
  co2,
  europages_companies = europages_companies,
  ecoinvent_activities = ecoinvent_activities,
  ecoinvent_europages = ecoinvent_europages,
  isic = isic_name
)

result
#> # A tibble: 72 × 3
#>    companies_id                              product           company 
#>  * <chr>                                     <list>            <list>  
#>  1 asteria_megalotomusquinquespinosus        <tibble [6 × 24]> <tibble>
#>  2 skarn_gallinule                           <tibble [6 × 24]> <tibble>
#>  3 relegable_southernhairnosedwombat         <tibble [6 × 24]> <tibble>
#>  4 psychodelic_airedale                      <tibble [6 × 24]> <tibble>
#>  5 ergophilic_fieldspaniel                   <tibble [6 × 24]> <tibble>
#>  6 preexistent_africanmolesnake              <tibble [6 × 24]> <tibble>
#>  7 wealthy_ocelot                            <tibble [6 × 24]> <tibble>
#>  8 fulltime_mollusk                          <tibble [6 × 24]> <tibble>
#>  9 gentlemanlike_asiaticlesserfreshwaterclam <tibble [6 × 24]> <tibble>
#> 10 frowsy_metalmarkbutterfly                 <tibble [6 × 24]> <tibble>
#> # ℹ 62 more rows
…
