Enhancing results • tiltIndicatorAfter
…
extension <- products |> select(matches(c("rowid", "isic", "sector")))
extension
#> # A tibble: 5 × 4
#>   products_rowid isic_4digit tilt_sector    tilt_subsector
#>            <int>       <dbl> <chr>          <chr>         
#> 1              1        2560 Industry       Other         
#> 2              2        2560 Industry       Other         
#> 3              3        2870 Steel & Metals Steel         
#> 4              4        1780 Agriculture    Agriculture   
#> 5              5        2679 Industry       Other

result_at_product_level <- left_join(unnest_product(result), extension)
#> Joining with `by = join_by(products_rowid)`
result_at_product_level
#> # A tibble: 49 × 10
#>    companies_id                products_rowid grouped_by risk_category clustered
#>    <chr>                                <int> <chr>      <chr>         <chr>    
#>  1 fleischerei-stiefsohn_0000…              1 all        high          stove    
#>  2 fleischerei-stiefsohn_0000…              1 isic_sec   high          stove    
#>  3 fleischerei-stiefsohn_0000…              1 tilt_sec   high          stove    
#>  4 fleischerei-stiefsohn_0000…              1 unit       high          stove    
#>  5 fleischerei-stiefsohn_0000…              1 unit_isic… high          stove    
#>  6 fleischerei-stiefsohn_0000…              1 unit_tilt… high          stove    
#>  7 fleischerei-stiefsohn_0000…              2 all        high          oven     
#>  8 fleischerei-stiefsohn_0000…              2 isic_sec   medium        oven     
#>  9 fleischerei-stiefsohn_0000…              2 tilt_sec   medium        oven     
#> 10 fleischerei-stiefsohn_0000…              2 unit       medium        oven     
#> # ℹ 39 more rows
#> # ℹ 5 more variables: activity_uuid_product_uuid <chr>, co2_footprint <dbl>,
#> #   isic_4digit <dbl>, tilt_sector <chr>, tilt_subsector <chr>
…
europages_companies <- ep_companies
europages_ecoinvent <- matches_mapper
ecoinvent_activities <- ecoinvent_activities
isic_tilt <- isic_tilt_mapper

enhanced <- result_at_product_level |>
  prepare_pctr_product(
    europages_companies,
    ecoinvent_activities,
    europages_ecoinvent,
    isic_tilt
  )
enhanced
#> # A tibble: 49 × 22
#>    companies_id     company_name country PCTR_risk_category benchmark ep_product
#>    <chr>            <chr>        <chr>   <chr>              <chr>     <chr>     
#>  1 fleischerei-sti… NA           NA      high               all       stove     
#>  2 fleischerei-sti… NA           NA      high               isic_sec  stove     
#>  3 fleischerei-sti… NA           NA      high               tilt_sec  stove     
#>  4 fleischerei-sti… NA           NA      high               unit      stove     
#>  5 fleischerei-sti… NA           NA      high               unit_isi… stove     
#>  6 fleischerei-sti… NA           NA      high               unit_til… stove     
#>  7 fleischerei-sti… NA           NA      high               all       oven      
#>  8 fleischerei-sti… NA           NA      medium             isic_sec  oven      
#>  9 fleischerei-sti… NA           NA      medium             tilt_sec  oven      
#> 10 fleischerei-sti… NA           NA      medium             unit      oven      
#> # ℹ 39 more rows
#> # ℹ 16 more variables: matched_activity_name <chr>,
#> #   matched_reference_product <chr>, unit <chr>, multi_match <chr>,
#> #   matching_certainty <chr>, matching_certainty_company_average <chr>,
#> #   tilt_sector <chr>, tilt_subsector <chr>, isic_4digit <chr>,
#> #   isic_name <chr>, company_city <chr>, postcode <dbl>, address <chr>,
#> #   main_activity <chr>, activity_uuid_product_uuid <chr>, …
…
